ST588 Homework 5
…
tidyD3

# A tibble: 382 × 53
   school sex     age address famsize Pstatus  Medu  Fedu Mjob     Fjob   reason
   <chr>  <chr> <dbl> <chr>   <chr>   <chr>   <dbl> <dbl> <chr>    <chr>  <chr> 
 1 GP     F        18 U       GT3     A           4     4 at_home  teach… course
 2 GP     F        17 U       GT3     T           1     1 at_home  other  course
 3 GP     F        15 U       LE3     T           1     1 at_home  other  other 
 4 GP     F        15 U       GT3     T           4     2 health   servi… home  
 5 GP     F        16 U       GT3     T           3     3 other    other  home  
 6 GP     M        16 U       LE3     T           4     3 services other  reput…
 7 GP     M        16 U       LE3     T           2     2 other    other  home  
 8 GP     F        17 U       GT3     A           4     4 other    teach… home  
 9 GP     M        15 U       LE3     A           3     2 services other  home  
10 GP     M        15 U       GT3     T           3     4 other    other  home  
# ℹ 372 more rows
# ℹ 42 more variables: guardian.x <chr>, traveltime.x <dbl>, studytime.x <dbl>,
#   failures.x <dbl>, schoolsup.x <chr>, famsup.x <chr>, paid.x <chr>,
#   activities.x <chr>, nursery <chr>, higher.x <chr>, internet <chr>,
#   romantic.x <chr>, famrel.x <dbl>, freetime.x <dbl>, goout.x <dbl>,
#   Dalc.x <dbl>, Walc.x <dbl>, health.x <dbl>, absences.x <dbl>, G1.x <dbl>,
#   G2.x <dbl>, G3.x <dbl>, guardian.y <chr>, traveltime.y <dbl>, …

The following warning was returned when doing dplyr inner join:

Warning: Detected an unexpected many-to-many relationship between x and y.

Next, we will do an inner join on all variables except G1, G2, G3, paid, and absences.

varExclude<-c("G1", "G2", "G3", "paid", "absences")
varBy<-subset(names(tidyD1), !names(tidyD1) %in% varExclude)
tidyD4<-inner_join(tidyD1, tidyD2, by=varBy)
tidyD4

# A tibble: 320 × 38
   school sex     age address famsize Pstatus  Medu  Fedu Mjob     Fjob   reason
   <chr>  <chr> <dbl> <chr>   <chr>   <chr>   <dbl> <dbl> <chr>    <chr>  <chr> 
 1 GP     F        18 U       GT3     A           4     4 at_home  teach… course
 2 GP     F        17 U       GT3     T           1     1 at_home  other  course
 3 GP     F        15 U       GT3     T           4     2 health   servi… home  
 4 GP     F        16 U       GT3     T           3     3 other    other  home  
 5 GP     M        16 U       LE3     T           4     3 services other  reput…
 6 GP     M        16 U       LE3     T           2     2 other    other  home  
 7 GP     F        17 U       GT3     A           4     4 other    teach… home  
 8 GP     M        15 U       LE3     A           3     2 services other  home  
 9 GP     M        15 U       GT3     T           3     4 other    other  home  
10 GP     F        15 U       GT3     T           4     4 teacher  health reput…
# ℹ 310 more rows
# ℹ 27 more variables: guardian <chr>, traveltime <dbl>, studytime <dbl>,
#   failures <dbl>, schoolsup <chr>, famsup <chr>, paid.x <chr>,
#   activities <chr>, nursery <chr>, higher <chr>, internet <chr>,
#   romantic <chr>, famrel <dbl>, freetime <dbl>, goout <dbl>, Dalc <dbl>,
#   Walc <dbl>, health <dbl>, absences.x <dbl>, G1.x <dbl>, G2.x <dbl>,
#   G3.x <dbl>, paid.y <chr>, absences.y <dbl>, G1.y <dbl>, G2.y <dbl>, …
…
